mpi_mm has started with 50 tasks.
Initializing arrays...
Sending 0 rows to task 1 offset=0
Sending 0 rows to task 2 offset=0
Sending 0 rows to task 3 offset=0
Sending 0 rows to task 4 offset=0
Sending 0 rows to task 5 offset=0
Sending 0 rows to task 6 offset=0
Sending 0 rows to task 7 offset=0
Sending 0 rows to task 8 offset=0
Sending 0 rows to task 9 offset=0
Sending 0 rows to task 10 offset=0
Sending 0 rows to task 11 offset=0
Sending 0 rows to task 12 offset=0
Sending 0 rows to task 13 offset=0
Sending 0 rows to task 14 offset=0
Sending 0 rows to task 15 offset=0
Sending 0 rows to task 16 offset=0
Sending 0 rows to task 17 offset=0
Sending 0 rows to task 18 offset=0
Sending 0 rows to task 19 offset=0
Sending 0 rows to task 20 offset=0
Sending 0 rows to task 21 offset=0
Sending 0 rows to task 22 offset=0
Sending 0 rows to task 23 offset=0
Sending 0 rows to task 24 offset=0
Sending 0 rows to task 25 offset=0
Sending 0 rows to task 26 offset=0
Sending 0 rows to task 27 offset=0
Sending 0 rows to task 28 offset=0
Sending 0 rows to task 29 offset=0
Sending 0 rows to task 30 offset=0
Sending 0 rows to task 31 offset=0
Sending 0 rows to task 32 offset=0
Sending 0 rows to task 33 offset=0
Sending 0 rows to task 34 offset=0
Sending 0 rows to task 35 offset=0
Sending 0 rows to task 36 offset=0
Sending 0 rows to task 37 offset=0
Sending 0 rows to task 38 offset=0
Sending 0 rows to task 39 offset=0
Sending 0 rows to task 40 offset=0
Sending 0 rows to task 41 offset=0
Sending 0 rows to task 42 offset=0
Sending 0 rows to task 43 offset=0
Sending 0 rows to task 44 offset=0
Sending 0 rows to task 45 offset=0
Sending 0 rows to task 46 offset=0
Sending 0 rows to task 47 offset=0
Sending 0 rows to task 48 offset=0
Sending 0 rows to task 49 offset=0
Received results from task 1
Received results from task 2
Received results from task 3
Received results from task 4
Received results from task 5
Received results from task 6
Received results from task 7
Received results from task 8
Received results from task 9
Received results from task 10
Received results from task 11
Received results from task 12
Received results from task 13
Received results from task 14
Received results from task 15
Received results from task 16
Received results from task 17
Received results from task 18
Received results from task 19
Received results from task 20
Received results from task 21
Received results from task 22
Received results from task 23
Received results from task 24
Received results from task 25
Received results from task 26
Received results from task 27
Received results from task 28
Received results from task 29
Received results from task 30
Received results from task 31
Received results from task 32
Received results from task 33
Received results from task 34
Received results from task 35
Received results from task 36
Received results from task 37
Received results from task 38
Received results from task 39
Received results from task 40
Received results from task 41
Received results from task 42
Received results from task 43
Received results from task 44
Received results from task 45
Received results from task 46
Received results from task 47
Received results from task 48
Received results from task 49
******************************************************
Result Matrix:

0 0 0 
3 3 3 
6 6 6 
******************************************************
Done.
